{
"items": [

    {
      "username": "Bhargav Raviya",
      "email": "raviyatechnical@gmail.com",
      "urlAvatar": "https://avatars.githubusercontent.com/u/46953122?v=4"
    },
    {
      "username": "Emma Spoon",
      "email": "Emma.Spoon@gmail.com",
      "urlAvatar": "https://images.unsplash.com/photo-1604426633861-11b2faead63c?ixlib=rb-1.2.1&ixid=MXwxMjA3fDB8MHxwaG90by1wYWdlfHx8fGVufDB8fHw%3D&auto=format&fit=crop&w=700&q=80"
    },
    {
      "username": "James Winter",
      "email": "James.Winter@gmail.com",
      "urlAvatar": "https://images.unsplash.com/photo-1497551060073-4c5ab6435f12?ixid=MXwxMjA3fDB8MHxwaG90by1wYWdlfHx8fGVufDB8fHw%3D&ixlib=rb-1.2.1&auto=format&fit=crop&w=667&q=80"
    },
    {
      "username": "Alex Summer",
      "email": "Alex.Summer@gmail.com",
      "urlAvatar": "https://images.unsplash.com/photo-1522529599102-193c0d76b5b6?ixid=MXwxMjA3fDB8MHxwaG90by1wYWdlfHx8fGVufDB8fHw%3D&ixlib=rb-1.2.1&auto=format&fit=crop&w=1050&q=80"
    },
    {
      "username": "Jenna Hollywood",
      "email": "Jenna.Hollywood@gmail.com",
      "urlAvatar": "https://images.unsplash.com/photo-1488426862026-3ee34a7d66df?ixid=MXwxMjA3fDB8MHxwaG90by1wYWdlfHx8fGVufDB8fHw%3D&ixlib=rb-1.2.1&auto=format&fit=crop&w=634&q=80"
    },
    {
      "username": "Diana Winterfield",
      "email": "Diano.Winterfield@gmail.com",
      "urlAvatar": "https://images.unsplash.com/photo-1534751516642-a1af1ef26a56?ixid=MXwxMjA3fDB8MHxwaG90by1wYWdlfHx8fGVufDB8fHw%3D&ixlib=rb-1.2.1&auto=format&fit=crop&w=635&q=80"
    },
    {
      "username": "Sarah Stone",
      "email": "Sarah.Stone@gmail.com",
      "urlAvatar": "https://images.unsplash.com/photo-1587628604439-3b9a0aa7a163?ixid=MXwxMjA3fDB8MHxwaG90by1wYWdlfHx8fGVufDB8fHw%3D&ixlib=rb-1.2.1&auto=format&fit=crop&w=634&q=80"
    },
    {
      "username": "Rebecca Field",
      "email": "Rebecca.Field@gmail.com",
      "urlAvatar": "https://images.unsplash.com/photo-1599842057874-37393e9342df?ixid=MXwxMjA3fDB8MHxwaG90by1wYWdlfHx8fGVufDB8fHw%3D&ixlib=rb-1.2.1&auto=format&fit=crop&w=634&q=80"
    },
    {
      "username": "Tom Mountain",
      "email": "Tom.Mountain@gmail.com",
      "urlAvatar": "https://images.unsplash.com/photo-1600486913747-55e5470d6f40?ixid=MXwxMjA3fDB8MHxwaG90by1wYWdlfHx8fGVufDB8fHw%3D&ixlib=rb-1.2.1&auto=format&fit=crop&w=1050&q=80"
    },
    {
      "username": "Harry Holmes",
      "email": "Harry.Homes@gmail.com",
      "urlAvatar": "https://images.unsplash.com/photo-1558521432-23ac0222f962?ixid=MXwxMjA3fDB8MHxwaG90by1wYWdlfHx8fGVufDB8fHw%3D&ixlib=rb-1.2.1&auto=format&fit=crop&w=634&q=80"
    }

]
}
